Create1/脉冲传递(无状态)/demo.vcd
$comment
Copyright (C) 1991-2009 Altera Corporation
Your use of Altera Corporation's design tools, logic functions 
and other software and tools, and its AMPP partner logic 
functions, and any output files from any of the foregoing 
(including device programming or simulation files), and any 
associated documentation or information are expressly subject 
to the terms and conditions of the Altera Program License 
Subscription Agreement, Altera MegaCore Function License 
Agreement, or other applicable license agreement, including, 
without limitation, that your use is for the sole purpose of 
programming logic devices manufactured by Altera and sold by 
Altera or its authorized distributors.  Please refer to the 
applicable agreement for further details.
$end

$date 
  03/10/2022 17:44:40 
$end
$version 
 QUARTUS_VCD_EXPORT 1.0 
$end
$timescale
  1 ps
$end
$scope module demo $end
$var reg 1 ! CP $end
$var reg 1 " Done $end
$var reg 1 # Start $end
$var reg 1 $ X $end
$var reg 1 % CP1 $end
$var reg 1 & CP2 $end
$var reg 1 ' con $end
$var reg 4 ( Y[3:0] $end
$upscope $end
$enddefinitions $end
#0
$dumpvars
0!
0"
1#
0$
0%
X&
0'
b0 (
$end
#5000
1!
#10000
0!
#15000
1!
#15771
1%
#20000
0!
1$
#20771
0%
#25000
1!
#25771
1%
#28234
1&
#30000
0!
#30771
0%
#32510
0&
#35000
1!
#35771
1%
#37510
1&
#39623
b1 (
#40000
0!
0$
#40771
0%
#42510
0&
#45000
1!
#45771
1%
#47510
1&
#49225
b11 (
#49623
b10 (
#50000
0!
#50771
0%
#55000
1!
#55771
1%
#60000
0!
1$
#60771
0%
#65000
1!
#65771
1%
#70000
0!
#70771
0%
#72510
0&
#75000
1!
#75771
1%
#77510
1&
#79623
b11 (
#80000
0!
0$
#80771
0%
#82510
0&
#85000
1!
#85771
1%
#87510
1&
#89225
b1 (
#89237
b101 (
#89623
b100 (
#90000
0!
#90771
0%
#95000
1!
#95771
1%
#100000
0!
1$
#100771
0%
#105000
1!
#105771
1%
#110000
0!
#110771
0%
#112510
0&
#115000
1!
#115771
1%
#117510
1&
#119623
b101 (
#120000
0!
0$
#120771
0%
#122510
0&
#125000
1!
#125771
1%
#127510
1&
#129225
b111 (
#129623
b110 (
#130000
0!
#130771
0%
#135000
1!
#135771
1%
#140000
0!
1$
#140771
0%
#145000
1!
#145771
1%
#150000
0!
#150771
0%
#152510
0&
#155000
1!
#155771
1%
#157510
1&
#159623
b111 (
#160000
0!
0$
#160771
0%
#162510
0&
#163683
1'
#164040
1"
#165000
1!
#165771
1%
#166451
b101 (
#166463
b1 (
#166849
b0 (
#167245
0'
#167602
0"
#170000
0!
#170771
0%
#175000
1!
#175771
1%
#180000
0!
1$
#180771
0%
#185000
1!
#185771
1%
#188234
1&
#190000
0!
#190347
b1 (
#190771
0%
#192510
0&
#195000
1!
#195771
1%
#197510
1&
#199225
b11 (
#199623
b10 (
#200000
0!
0$
#200771
0%
#202510
0&
#205000
1!
#205771
1%
#207510
1&
#209623
b11 (
#210000
0!
#210771
0%
#215000
1!
#215771
1%
#220000
0!
1$
#220771
0%
#225000
1!
#225771
1%
#230000
0!
#230771
0%
#232510
0&
#235000
1!
#235771
1%
#237510
1&
#239225
b1 (
#239237
b101 (
#239623
b100 (
#240000
0!
0$
#240771
0%
#242510
0&
#245000
1!
#245771
1%
#247510
1&
#249623
b101 (
#250000
0!
#250771
0%
#255000
1!
#255771
1%
#260000
0!
1$
#260771
0%
#265000
1!
#265771
1%
#270000
0!
#270771
0%
#272510
0&
#275000
1!
#275771
1%
#277510
1&
#279225
b111 (
#279623
b110 (
#280000
0!
0$
#280771
0%
#282510
0&
#285000
1!
#285771
1%
#287510
1&
#289623
b111 (
#290000
0!
#290771
0%
#295000
1!
#295771
1%
#300000
0!
1$
#300771
0%
#305000
1!
#305771
1%
#310000
0!
#310771
0%
#312510
0&
#315000
1!
#315771
1%
#317510
1&
#319225
b101 (
#319236
b1101 (
#319237
b1001 (
#319623
b1000 (
#320000
0!
0$
#320771
0%
#322510
0&
#323683
1'
#324040
1"
#325000
1!
#325771
1%
#326462
b0 (
#327245
0'
#327602
0"
#330000
0!
#330771
0%
#335000
1!
#335771
1%
#340000
0!
1$
#340771
0%
#345000
1!
#345771
1%
#348234
1&
#350000
0!
#350347
b1 (
#350771
0%
#352510
0&
#355000
1!
#355771
1%
#357510
1&
#359225
b11 (
#359623
b10 (
#360000
0!
0$
#360771
0%
#362510
0&
#365000
1!
#365771
1%
#367510
1&
#369623
b11 (
#370000
0!
#370771
0%
#375000
1!
#375771
1%
#380000
0!
1$
#380771
0%
#385000
1!
#385771
1%
#390000
0!
#390771
0%
#392510
0&
#395000
1!
#395771
1%
#397510
1&
#399225
b1 (
#399237
b101 (
#399623
b100 (
#400000
0!
0$
#400771
0%
#402510
0&
#405000
1!
#405771
1%
#407510
1&
#409623
b101 (
#410000
0!
#410771
0%
#415000
1!
#415771
1%
#420000
0!
1$
#420771
0%
#425000
1!
#425771
1%
#430000
0!
#430771
0%
#432510
0&
#435000
1!
#435771
1%
#437510
1&
#439225
b111 (
#439623
b110 (
#440000
0!
0#
0$
#440771
0%
#442510
0&
#445000
1!
#445771
1%
#447510
1&
#449623
b111 (
#450000
0!
#450771
0%
#453441
b101 (
#453453
b1 (
#453839
b0 (
#455000
1!
#455771
1%
#460000
0!
1$
#460771
0%
#465000
1!
#465771
1%
#470000
0!
#470771
0%
#472510
0&
#475000
1!
#475771
1%
#477510
1&
#480000
0!
0$
#480771
0%
#482510
0&
#485000
1!
#485771
1%
#487510
1&
#490000
0!
#490771
0%
#495000
1!
#495771
1%
#500000
0!
1$
#500771
0%
#505000
1!
#505771
1%
#510000
0!
#510771
0%
#512510
0&
#515000
1!
#515771
1%
#517510
1&
#520000
0!
0$
#520771
0%
#522510
0&
#525000
1!
#525771
1%
#527510
1&
#530000
0!
#530771
0%
#535000
1!
#535771
1%
#540000
0!
1$
#540771
0%
#545000
1!
#545771
1%
#550000
0!
#550771
0%
#552510
0&
#555000
1!
#555771
1%
#557510
1&
#560000
0!
0$
#560771
0%
#562510
0&
#565000
1!
#565771
1%
#567510
1&
#570000
0!
#570771
0%
#575000
1!
#575771
1%
#580000
0!
1$
#580771
0%
#585000
1!
#585771
1%
#590000
0!
#590771
0%
#592510
0&
#595000
1!
#595771
1%
#597510
1&
#600000
0!
1#
0$
#600771
0%
#602510
0&
#605000
1!
#605771
1%
#607510
1&
#610000
0!
#610771
0%
#615000
1!
#615771
1%
#620000
0!
1$
#620771
0%
#625000
1!
#625771
1%
#630000
0!
#630771
0%
#632510
0&
#635000
1!
#635771
1%
#637510
1&
#639623
b1 (
#640000
0!
0$
#640771
0%
#642510
0&
#645000
1!
#645771
1%
#647510
1&
#649225
b11 (
#649623
b10 (
#650000
0!
#650771
0%
#655000
1!
#655771
1%
#660000
0!
1$
#660771
0%
#665000
1!
#665771
1%
#670000
0!
#670771
0%
#672510
0&
#675000
1!
#675771
1%
#677510
1&
#679623
b11 (
#680000
0!
0$
#680771
0%
#682510
0&
#685000
1!
#685771
1%
#687510
1&
#689225
b1 (
#689237
b101 (
#689623
b100 (
#690000
0!
#690771
0%
#695000
1!
#695771
1%
#700000
0!
1$
#700771
0%
#705000
1!
#705771
1%
#710000
0!
#710771
0%
#712510
0&
#715000
1!
#715771
1%
#717510
1&
#719623
b101 (
#720000
0!
0$
#720771
0%
#722510
0&
#725000
1!
#725771
1%
#727510
1&
#729225
b111 (
#729623
b110 (
#730000
0!
#730771
0%
#735000
1!
#735771
1%
#740000
0!
1$
#740771
0%
#745000
1!
#745771
1%
#750000
0!
#750771
0%
#752510
0&
#755000
1!
#755771
1%
#757510
1&
#759623
b111 (
#760000
0!
0$
#760771
0%
#762510
0&
#763683
1'
#764040
1"
#765000
1!
#765771
1%
#766451
b101 (
#766463
b1 (
#766849
b0 (
#767245
0'
#767602
0"
#770000
0!
#770771
0%
#775000
1!
#775771
1%
#780000
0!
1$
#780771
0%
#785000
1!
#785771
1%
#788234
1&
#790000
0!
#790347
b1 (
#790771
0%
#792510
0&
#795000
1!
#795771
1%
#797510
1&
#799225
b11 (
#799623
b10 (
#800000
0!
0$
#800771
0%
#802510
0&
#805000
1!
#805771
1%
#807510
1&
#809623
b11 (
#810000
0!
#810771
0%
#815000
1!
#815771
1%
#820000
0!
1$
#820771
0%
#825000
1!
#825771
1%
#830000
0!
#830771
0%
#832510
0&
#835000
1!
#835771
1%
#837510
1&
#839225
b1 (
#839237
b101 (
#839623
b100 (
#840000
0!
0$
#840771
0%
#842510
0&
#845000
1!
#845771
1%
#847510
1&
#849623
b101 (
#850000
0!
#850771
0%
#855000
1!
#855771
1%
#860000
0!
1$
#860771
0%
#865000
1!
#865771
1%
#870000
0!
#870771
0%
#872510
0&
#875000
1!
#875771
1%
#877510
1&
#879225
b111 (
#879623
b110 (
#880000
0!
0$
#880771
0%
#882510
0&
#885000
1!
#885771
1%
#887510
1&
#889623
b111 (
#890000
0!
#890771
0%
#895000
1!
#895771
1%
#900000
0!
1$
#900771
0%
#905000
1!
#905771
1%
#910000
0!
#910771
0%
#912510
0&
#915000
1!
#915771
1%
#917510
1&
#919225
b101 (
#919236
b1101 (
#919237
b1001 (
#919623
b1000 (
#920000
0!
0$
#920771
0%
#922510
0&
#923683
1'
#924040
1"
#925000
1!
#925771
1%
#926462
b0 (
#927245
0'
#927602
0"
#930000
0!
#930771
0%
#935000
1!
#935771
1%
#940000
0!
1$
#940771
0%
#945000
1!
#945771
1%
#948234
1&
#950000
0!
#950347
b1 (
#950771
0%
#952510
0&
#955000
1!
#955771
1%
#957510
1&
#959225
b11 (
#959623
b10 (
#960000
0!
0$
#960771
0%
#962510
0&
#965000
1!
#965771
1%
#967510
1&
#969623
b11 (
#970000
0!
#970771
0%
#975000
1!
#975771
1%
#980000
0!
0#
1$
#980771
0%
#985000
1!
#985771
1%
#990000
0!
#990771
0%
#992510
0&
#993441
b1 (
#993839
b0 (
#995000
1!
#995771
1%
#997510
1&
